^C:\USERS\WHITE\SOURCE\REPOS\EXAM2PRACTICAL\EXAM2PRACTICAL\DEBUG\MAIN.OBJ
C:\USERS\WHITE\SOURCE\REPOS\EXAM2PRACTICAL\DEBUG\EXAM2PRACTICAL.EXE
C:\USERS\WHITE\SOURCE\REPOS\EXAM2PRACTICAL\EXAM2PRACTICAL\DEBUG\EXAM2PRACTICAL.ILK
C:\USERS\WHITE\SOURCE\REPOS\EXAM2PRACTICAL\DEBUG\EXAM2PRACTICAL.PDB
